2005-06-06 14:12 +0000 [r422799]  aseigo

	* kweather/dockwidget.cpp: backport button geom fix CCBUG:95460

2005-06-18 15:17 +0000 [r426789]  aacid

	* kweather/weather_stations.desktop: backport fix for #107461

2005-06-27 15:18 +0000 [r429401]  binner

	* kdetoys.lsm: 3.4.2 preparations

