<?xml version="1.0" encoding="UTF-8" standalone="no"?>
<!-- Generator: Adobe Illustrator 14.0.0, SVG Export Plug-In . SVG Version: 6.00 Build 43363)  -->

<svg
   xmlns:dc="http://purl.org/dc/elements/1.1/"
   xmlns:cc="http://creativecommons.org/ns#"
   xmlns:rdf="http://www.w3.org/1999/02/22-rdf-syntax-ns#"
   xmlns:svg="http://www.w3.org/2000/svg"
   xmlns="http://www.w3.org/2000/svg"
   xmlns:sodipodi="http://sodipodi.sourceforge.net/DTD/sodipodi-0.dtd"
   xmlns:inkscape="http://www.inkscape.org/namespaces/inkscape"
   enable-background="new 0 0 566.93 283.46"
   xml:space="preserve"
   height="150"
   width="300"
   version="1.1"
   y="0px"
   x="0px"
   viewBox="0 0 300 150.00001"
   id="svg2"
   inkscape:version="0.91 r13725"
   sodipodi:docname="blue-systems.svg"><defs
     id="defs190" /><sodipodi:namedview
     pagecolor="#ffffff"
     bordercolor="#666666"
     borderopacity="1"
     objecttolerance="10"
     gridtolerance="10"
     guidetolerance="10"
     inkscape:pageopacity="0"
     inkscape:pageshadow="2"
     inkscape:window-width="1366"
     inkscape:window-height="697"
     id="namedview188"
     showgrid="false"
     inkscape:zoom="1"
     inkscape:cx="195.61706"
     inkscape:cy="30.292531"
     inkscape:window-x="0"
     inkscape:window-y="0"
     inkscape:window-maximized="1"
     inkscape:current-layer="svg2" /><metadata
     id="metadata4"><rdf:RDF><cc:Work
         rdf:about=""><dc:format>image/svg+xml</dc:format><dc:type
           rdf:resource="http://purl.org/dc/dcmitype/StillImage" /><dc:title /></cc:Work></rdf:RDF></metadata><g
     transform="translate(0 -133)"
     display="none"
     id="g6"><g
       display="inline"
       id="g8"><path
         d="m376 133c-1.05 2.5 0.119 5.38 2.62 6.43-2.5-1.05-5.38 0.119-6.43 2.62 1.05-2.5-0.119-5.38-2.62-6.43 2.5 1.05 5.38-0.117 6.43-2.62z"
         id="path10" /><path
         d="m325 115c-1.05 2.5 0.119 5.38 2.62 6.43-2.5-1.05-5.38 0.118-6.43 2.61 1.05-2.5-0.117-5.38-2.62-6.43 2.5 1.05 5.38-0.118 6.43-2.62z"
         id="path12" /><path
         d="m286 118c-1.05 2.5 0.118 5.38 2.62 6.43-2.5-1.05-5.38 0.119-6.43 2.62 1.05-2.5-0.121-5.38-2.62-6.43 2.5 1.05 5.38-0.117 6.43-2.62z"
         id="path14" /><path
         d="m239 125c-1.06 2.5 0.116 5.38 2.62 6.43-2.5-1.05-5.38 0.118-6.43 2.62 1.05-2.5-0.119-5.38-2.62-6.43 2.5 1.05 5.38-0.118 6.43-2.62z"
         id="path16" /><path
         d="m221 156c-1.05 2.5 0.119 5.38 2.62 6.43-2.5-1.06-5.38 0.117-6.43 2.61 1.05-2.5-0.118-5.38-2.62-6.43 2.5 1.05 5.38-0.116 6.43-2.62z"
         id="path18" /><path
         d="m174 147c-1.05 2.5 0.119 5.38 2.62 6.43-2.5-1.05-5.38 0.118-6.43 2.62 1.05-2.5-0.121-5.38-2.62-6.43 2.5 1.05 5.38-0.117 6.43-2.62z"
         id="path20" /><path
         d="m172 107c-1.05 2.5 0.119 5.38 2.62 6.43-2.5-1.05-5.38 0.12-6.43 2.62 1.05-2.5-0.118-5.38-2.62-6.43 2.5 1.05 5.38-0.117 6.43-2.62z"
         id="path22" /><path
         d="m245 147-1.25 7c0.92-0.658 2.37-0.921 3.12-0.921 4.37 0 6.67 3.25 6.67 7.16 0 9.99-9.66 12-17 8.97l3.91-22.2h4.5zm-3.45 19.3c0.789 0.296 1.58 0.362 2.3 0.362 3.16-0.033 5.19-2.73 5.19-5.95 0-2.5-1.44-3.68-3.58-3.68-0.625 0-1.54 0.164-2.33 0.658l-1.58 8.61z"
         id="path24" /><path
         d="m261 171c-3.88 0.624-6.67-0.756-5.85-5.36l3.12-17.7h4.5l-3.12 17.7c-0.164 0.854 0.098 1.84 2 1.68l-0.656 3.68z"
         id="path26" /><path
         d="m263 163 1.71-9.63h4.5l-1.68 9.43c-0.592 3.32 2.53 4.47 5.85 3.45l2.27-12.9h4.5l-2.79 15.9c-6.31 2.33-15.8 1.97-14.4-6.31z"
         id="path28" /><path
         d="m295 168c-2.4 2.2-4.77 3.12-7.2 3.12-4.9 0-7.13-3.55-7.13-7.26 0-4.9 3.94-10.1 10.2-10.1 4.24-0.033 6.97 2.66 6.97 6.74 0 1.58-0.395 2.63-1.05 3.71h-11.7c-0.065 3.75 4.7 3.98 7.86 1.54l2.14 2.24zm-1.54-7.23c0.197-2.4-1.58-3.12-3.29-3.12-1.74 0-3.78 0.887-4.54 3.12h7.82z"
         id="path30" /><g
         fill="#58595b"
         id="g32"><path
           d="m310 165c0 3.65-3.88 5.39-6.54 5.39-1.97 0-3.71-0.821-4.67-2.4 0.395-0.328 0.888-0.756 1.22-1.05 1.51 2.76 7.23 2.66 8.25-1.38 0.296-1.87-1.81-2.83-3.25-3.12-2.46-0.428-4.57-1.78-4.11-4.5 0.854-4.9 7.76-6.11 10.4-3.16l-1.22 1.12c-1.84-2.17-7.53-1.31-7.53 2.37 0 1.68 1.77 2.4 3.06 2.66 2.27 0.492 4.4 1.68 4.4 4.08z"
           id="path34" /><path
           d="m311 175c1.87 0.066 2.76-0.592 3.52-1.94l1.41-2.53-3.88-16.7h1.84l3.25 15 8.25-15h1.84l-11.2 19.8c-1.22 2.24-2.89 2.79-4.77 2.79h-0.525l0.262-1.42z"
           id="path36" /><path
           d="m336 165c0 3.65-3.88 5.39-6.54 5.39-1.97 0-3.72-0.821-4.67-2.4 0.395-0.328 0.888-0.756 1.22-1.05 1.51 2.76 7.23 2.66 8.25-1.38 0.296-1.87-1.81-2.83-3.25-3.12-2.46-0.428-4.57-1.78-4.11-4.5 0.854-4.9 7.76-6.11 10.4-3.16l-1.22 1.12c-1.84-2.17-7.53-1.31-7.53 2.37 0 1.68 1.78 2.4 3.06 2.66 2.27 0.492 4.4 1.68 4.4 4.08z"
           id="path38" /><path
           d="m343 171c-2.93 0.133-4.83-1.41-4.24-4.67l1.87-10.7h-2.47l0.264-1.41h2.46l0.689-4.08 1.74-0.362-0.756 4.44h3.39l-0.264 1.41h-3.38l-1.87 10.7c-0.362 1.97 0.723 3.15 2.86 3.12l-0.295 1.54z"
           id="path40" /><path
           d="m358 167 1.12 0.888c-1.91 1.94-4.34 2.89-6.84 2.89-5.36 0-7.26-4.57-6.51-8.71 0.756-4.17 4.27-8.38 9.5-8.41 4.01-0.032 6.48 2.89 6.48 6.7 0 1.68-0.296 1.94-0.395 2.37h-14.1c-0.395 3.65 1.38 6.44 5.32 6.44 1.88 0 3.98-0.689 5.42-2.17zm2.14-5.72c0.461-3.58-1.68-5.98-5.13-6.05-3.88 0.033-6.48 2.7-7.53 6.05h12.7z"
           id="path42" /><path
           d="m376 157c1.94-2.93 4.21-3.39 6.41-3.39 3.58 0 6.15 1.94 5.26 7l-1.74 9.93h-1.71l1.74-9.93c0.689-3.88-1.28-5.46-3.81-5.46-2.6 0-5.19 1.18-5.92 5.13l-1.81 10.3h-1.64l1.81-10.3c1.18-5-4.64-6.15-8.71-4.64l-2.63 14.9h-1.71l2.83-16.1c3.68-1.41 10.6-1.71 11.6 2.53z"
           id="path44" /><path
           d="m400 165c0 3.65-3.88 5.39-6.54 5.39-1.97 0-3.71-0.822-4.67-2.4 0.393-0.328 0.887-0.756 1.22-1.05 1.51 2.76 7.23 2.66 8.25-1.38 0.297-1.87-1.81-2.83-3.25-3.12-2.46-0.427-4.57-1.77-4.11-4.5 0.854-4.9 7.76-6.11 10.4-3.16l-1.22 1.12c-1.84-2.17-7.53-1.31-7.53 2.37 0 1.68 1.78 2.4 3.06 2.66 2.27 0.493 4.4 1.68 4.4 4.08z"
           id="path46" /></g></g><rect
       display="inline"
       height="28.3"
       width="28.3"
       y="10"
       x="539"
       id="rect48" /><rect
       display="inline"
       height="28.3"
       width="28.3"
       y="40.3"
       x="539"
       fill="#58595b"
       id="rect50" /></g><g
     transform="matrix(1.205,0,0,-1.21,266.56,52.288)"
     id="g56"><path
       d="m 0,0 c -1.11,-2.64 0.126,-5.68 2.77,-6.79 -2.64,1.11 -5.68,-0.125 -6.79,-2.76 1.11,2.64 -0.126,5.68 -2.77,6.79 C -4.15,-3.88 -1.11,-2.64 0,0"
       id="path58"
       inkscape:connector-curvature="0"
       style="fill:#0074bb" /></g><g
     transform="matrix(1.205,0,0,-1.21,202.936,29.056)"
     id="g60"><path
       d="m 0,0 c -1.11,-2.64 0.126,-5.68 2.77,-6.8 -2.64,1.11 -5.68,-0.125 -6.8,-2.76 1.11,2.64 -0.124,5.68 -2.77,6.79 2.65,-1.11 5.69,0.13 6.8,2.77"
       id="path62"
       inkscape:connector-curvature="0"
       style="fill:#0074bb" /></g><g
     transform="matrix(1.205,0,0,-1.21,151.844,33.896)"
     id="g64"><path
       d="m 0,0 c -1.11,-2.64 0.125,-5.68 2.76,-6.79 -2.64,1.11 -5.68,-0.126 -6.79,-2.76 1.11,2.64 -0.127,5.68 -2.77,6.79 2.64,-1.12 5.69,0.12 6.8,2.76"
       id="path66"
       inkscape:connector-curvature="0"
       style="fill:#0074bb" /></g><g
     transform="matrix(1.205,0,0,-1.21,93.04,41.64)"
     id="g68"><path
       d="m 0,0 c -1.12,-2.64 0.123,-5.68 2.76,-6.79 -2.64,1.11 -5.68,-0.13 -6.79,-2.77 1.11,2.64 -0.13,5.68 -2.76,6.79 C -4.16,-3.88 -1.12,-2.64 0,0"
       id="path70"
       inkscape:connector-curvature="0"
       style="fill:#0074bb" /></g><g
     transform="matrix(1.205,0,0,-1.21,69.8076,82.296)"
     id="g72"><path
       d="m 0,0 c -1.11,-2.64 0.125,-5.68 2.77,-6.8 -2.64,1.12 -5.68,-0.12 -6.8,-2.76 1.12,2.64 -0.12,5.68 -2.76,6.79 C -4.15,-3.88 -1.11,-2.64 0,0"
       id="path74"
       inkscape:connector-curvature="0"
       style="fill:#0074bb" /></g><g
     transform="matrix(1.205,0,0,-1.21,9.4612,70.68)"
     id="g76"><path
       d="m 0,0 c -1.11,-2.64 0.126,-5.68 2.76,-6.8 -2.64,1.11 -5.68,-0.125 -6.79,-2.77 1.11,2.64 -0.128,5.68 -2.76,6.79 2.63,-1.1 5.68,0.14 6.79,2.78"
       id="path78"
       inkscape:connector-curvature="0"
       style="fill:#0074bb" /></g><g
     transform="matrix(1.205,0,0,-1.21,7.6296,19.376)"
     id="g80"><path
       d="m 0,0 c -1.11,-2.64 0.126,-5.68 2.76,-6.79 -2.64,1.11 -5.68,-0.127 -6.79,-2.77 1.11,2.64 -0.124,5.68 -2.77,6.79 2.65,-1.11 5.69,0.13 6.8,2.77"
       id="path82"
       inkscape:connector-curvature="0"
       style="fill:#0074bb" /></g><g
     transform="matrix(1.205,0,0,-1.21,95.932,95.848)"
     id="g84"><path
       d="m 0,0 c 0.833,-0.313 1.67,-0.383 2.43,-0.383 3.34,0.035 5.49,2.88 5.49,6.28 0,2.64 -1.53,3.89 -3.78,3.89 -0.66,0 -1.63,-0.174 -2.47,-0.695 L 0,-0.008 Z M 3.65,20.4 2.33,13 c 0.972,0.695 2.5,0.973 3.3,0.973 4.62,0 7.05,-3.44 7.05,-7.57 0,-10.6 -10.2,-12.7 -17.9,-9.48 l 4.13,23.5 4.76,0 z"
       id="path86"
       inkscape:connector-curvature="0"
       style="fill:#0074bb" /></g><g
     transform="matrix(1.205,0,0,-1.21,120.996,100.688)"
     id="g88"><path
       d="m 0,0 c -4.1,-0.659 -7.05,0.799 -6.18,5.66 l 3.3,18.7 4.76,0 -3.3,-18.7 C -1.6,4.72 -1.32,3.68 0.69,3.85 L 0,-0.04 Z"
       id="path90"
       inkscape:connector-curvature="0"
       style="fill:#0074bb" /></g><g
     transform="matrix(1.205,0,0,-1.21,123.888,91.976)"
     id="g92"><path
       d="m 0,0 1.81,10.2 4.76,0 L 4.8,0.23 c -0.625,-3.51 2.67,-4.72 6.18,-3.65 l 2.4,13.6 4.76,0 -2.95,-16.8 C 8.5,-9.13 -1.61,-8.75 -0.01,0"
       id="path94"
       inkscape:connector-curvature="0"
       style="fill:#0074bb" /></g><g
     transform="matrix(1.205,0,0,-1.21,162.448,88.104)"
     id="g96"><path
       d="m 0,0 c 0.209,2.54 -1.67,3.3 -3.47,3.3 -1.84,0 -4,-0.94 -4.79,-3.3 L 0,0 Z m 1.63,-7.64 c -2.54,-2.33 -5.04,-3.3 -7.6,-3.3 -5.17,0 -7.54,3.75 -7.54,7.67 0,5.17 4.17,10.6 10.7,10.7 4.48,0.036 7.36,-2.81 7.36,-7.12 0,-1.67 -0.417,-2.78 -1.11,-3.92 l -12.4,0 c -0.069,-3.96 4.97,-4.2 8.3,-1.63 L 1.6,-7.6 Z"
       id="path98"
       inkscape:connector-curvature="0"
       style="fill:#0074bb" /></g><g
     transform="matrix(1.205,0,0,-1.21,182.692,93.912)"
     id="g100"><path
       d="m 0,0 c 0,-3.85 -4.1,-5.69 -6.91,-5.69 -2.08,0 -3.92,0.867 -4.93,2.54 0.417,0.346 0.938,0.798 1.28,1.11 1.6,-2.92 7.64,-2.81 8.72,1.46 0.313,1.98 -1.91,2.99 -3.44,3.3 -2.6,0.452 -4.83,1.88 -4.34,4.76 0.902,5.18 8.2,6.46 11,3.33 L 0.01,9.63 c -1.94,2.29 -7.95,1.39 -7.95,-2.5 0,-1.77 1.88,-2.53 3.23,-2.81 2.39,-0.52 4.65,-1.77 4.65,-4.31"
       id="path102"
       inkscape:connector-curvature="0"
       style="fill:#58595b" /></g><g
     transform="matrix(1.205,0,0,-1.21,184.62,106.496)"
     id="g104"><path
       d="m 0,0 c 1.98,-0.07 2.92,0.625 3.72,2.05 l 1.49,2.67 -4.1,17.7 1.95,0 3.44,-15.8 8.72,15.8 1.94,0 L 5.36,1.52 C 4.09,-0.88 2.32,-1.47 0.34,-1.47 l -0.555,0 0.275,1.49 z"
       id="path106"
       inkscape:connector-curvature="0"
       style="fill:#58595b" /></g><g
     transform="matrix(1.205,0,0,-1.21,216.432,93.912)"
     id="g108"><path
       d="m 0,0 c 0,-3.85 -4.1,-5.69 -6.91,-5.69 -2.08,0 -3.93,0.867 -4.93,2.54 0.417,0.346 0.939,0.798 1.29,1.11 1.6,-2.92 7.64,-2.81 8.72,1.46 0.313,1.98 -1.91,2.99 -3.44,3.3 -2.6,0.452 -4.83,1.88 -4.34,4.76 0.903,5.18 8.2,6.46 11,3.33 L 0.02,9.63 c -1.94,2.29 -7.95,1.39 -7.95,-2.5 0,-1.77 1.88,-2.53 3.23,-2.81 2.39,-0.52 4.65,-1.77 4.65,-4.31"
       id="path110"
       inkscape:connector-curvature="0"
       style="fill:#58595b" /></g><g
     transform="matrix(1.205,0,0,-1.21,226.072,100.688)"
     id="g112"><path
       d="m 0,0 c -3.09,-0.141 -5.1,1.49 -4.48,4.93 l 1.98,11.3 -2.6,0 0.278,1.49 2.6,0 0.729,4.31 1.84,0.383 -0.799,-4.69 3.58,0 -0.278,-1.49 -3.58,0 -1.98,-11.3 c -0.38,-2.05 0.77,-3.3 3.02,-3.27 L 0,0.033 Z"
       id="path114"
       inkscape:connector-curvature="0"
       style="fill:#58595b" /></g><g
     transform="matrix(1.205,0,0,-1.21,247.28,89.072)"
     id="g116"><path
       d="M 0,0 C 0.487,3.78 -1.77,6.32 -5.42,6.39 -9.52,6.35 -12.3,3.54 -13.4,0 L 0,0 Z m -2.26,-6.04 1.18,-0.937 c -2.02,-2.05 -4.58,-3.06 -7.22,-3.06 -5.66,0 -7.68,4.83 -6.88,9.2 0.799,4.41 4.51,8.85 10,8.89 4.24,0.034 6.84,-3.06 6.84,-7.08 0,-1.77 -0.312,-2.05 -0.417,-2.5 l -14.9,0 c -0.416,-3.86 1.46,-6.81 5.63,-6.81 1.98,0 4.2,0.729 5.73,2.29"
       id="path118"
       inkscape:connector-curvature="0"
       style="fill:#58595b" /></g><g
     transform="matrix(1.205,0,0,-1.21,267.524,83.264)"
     id="g120"><path
       d="m 0,0 c 2.05,3.09 4.44,3.58 6.77,3.58 3.78,0 6.49,-2.05 5.56,-7.4 l -1.84,-10.5 -1.8,0 1.84,10.5 C 11.259,0.28 9.18,1.94 6.5,1.94 3.76,1.94 1.02,0.69 0.25,-3.48 l -1.91,-10.8 -1.74,0 1.91,10.8 c 1.25,5.28 -4.9,6.49 -9.2,4.9 l -2.78,-15.7 -1.8,0 2.98,17 C -8.39,4.17 -1.09,4.48 0.01,0"
       id="path122"
       inkscape:connector-curvature="0"
       style="fill:#58595b" /></g><g
     transform="matrix(1.205,0,0,-1.21,297.408,93.912)"
     id="g124"><path
       d="m 0,0 c 0,-3.85 -4.1,-5.7 -6.91,-5.7 -2.08,0 -3.92,0.869 -4.93,2.54 0.414,0.346 0.937,0.799 1.28,1.11 1.6,-2.92 7.64,-2.81 8.72,1.46 0.314,1.98 -1.91,2.99 -3.44,3.3 -2.6,0.451 -4.83,1.88 -4.34,4.76 0.902,5.17 8.2,6.46 11,3.34 L 0.01,9.63 c -1.95,2.29 -7.95,1.39 -7.95,-2.5 0,-1.77 1.88,-2.54 3.23,-2.81 2.39,-0.52 4.65,-1.77 4.65,-4.31"
       id="path126"
       inkscape:connector-curvature="0"
       style="fill:#58595b" /></g><g
     style="font-style:italic;font-variant:normal;font-weight:normal;font-stretch:normal;font-size:18.28951263px;line-height:125%;font-family:'Noto Sans';-inkscape-font-specification:'Noto Sans Italic';letter-spacing:0px;word-spacing:0px;fill:#909c9c;fill-opacity:1;stroke:none;stroke-width:1px;stroke-linecap:butt;stroke-linejoin:miter;stroke-opacity:1"
     id="text4318"><path
       d="m 138.19226,126.50297 2.75951,-13.05629 1.62533,0 -2.46479,11.5917 5.00996,0 -0.31256,1.46459 -6.61745,0 z"
       style=""
       id="path4323" /><path
       d="m 148.31937,126.50297 -1.61641,0 2.08972,-9.80561 1.60748,0 -2.08079,9.80561 z m 0.89304,-12.28827 q 0,-0.50903 0.2947,-0.83946 0.30364,-0.33042 0.78588,-0.33042 0.83946,0 0.83946,0.82159 0,0.53583 -0.31256,0.87519 -0.31257,0.33042 -0.7323,0.33042 -0.38401,0 -0.63406,-0.22326 -0.24112,-0.22326 -0.24112,-0.63406 z"
       style=""
       id="path4325" /><path
       d="m 155.82986,126.68158 q -0.84839,0 -1.50925,-0.43759 -0.66085,-0.4376 -1.0002,-1.24133 l -0.0893,0 -0.59834,1.50031 -1.21453,0 2.94704,-13.89575 1.60747,0 -0.69657,3.2864 q -0.16075,0.79481 -0.38401,1.65213 -0.22326,0.85732 -0.28577,0.98235 l 0.0714,0 q 0.9109,-1.10738 1.66999,-1.54497 0.76802,-0.44652 1.56283,-0.44652 1.26812,0 1.97362,0.87518 0.71443,0.86626 0.71443,2.45587 0,1.8486 -0.60727,3.43822 -0.60726,1.58068 -1.70571,2.48265 -1.08951,0.89305 -2.45586,0.89305 z m 1.57175,-8.81433 q -0.84839,0 -1.71464,0.84839 -0.85732,0.83946 -1.35743,2.11651 -0.49117,1.26812 -0.49117,2.54517 0,0.92876 0.47331,1.45566 0.48225,0.51796 1.39315,0.51796 0.87518,0 1.62534,-0.73229 0.75015,-0.7323 1.18774,-2.02721 0.4376,-1.30384 0.4376,-2.74164 0,-1.98255 -1.5539,-1.98255 z"
       style=""
       id="path4327" /><path
       d="m 167.20722,117.84938 q -0.91983,0 -1.7325,0.86626 -0.81267,0.85732 -1.17882,2.24153 l 0.13396,0 q 1.94683,0 3.01848,-0.51796 1.07165,-0.51797 1.07165,-1.50924 0,-0.47332 -0.32149,-0.77695 -0.3215,-0.30364 -0.99128,-0.30364 z m -1.25919,8.8322 q -1.66106,0 -2.60769,-0.97342 -0.94662,-0.98235 -0.94662,-2.71485 0,-1.67892 0.65192,-3.20602 0.66085,-1.52711 1.77716,-2.39336 1.1163,-0.87518 2.47372,-0.87518 1.39315,0 2.09865,0.60727 0.70551,0.59834 0.70551,1.67892 0,1.62534 -1.50031,2.54517 -1.50032,0.91091 -4.23303,0.91091 l -0.30363,0 -0.0357,0.67871 q 0,1.12523 0.53582,1.76822 0.54476,0.64299 1.66999,0.64299 0.68765,0 1.31278,-0.19647 0.63406,-0.19647 1.35742,-0.55368 l 0,1.37528 q -0.88411,0.4108 -1.54496,0.55369 -0.66086,0.15182 -1.41101,0.15182 z"
       style=""
       id="path4329" /><path
       d="m 177.45042,116.51875 q 0.62513,0 1.06272,0.12503 l -0.34829,1.44673 q -0.5001,-0.10717 -0.93769,-0.10717 -0.80374,0 -1.50925,0.5269 -0.7055,0.51796 -1.2324,1.45566 -0.51796,0.93769 -0.75015,2.05399 l -0.94663,4.48308 -1.6164,0 2.08972,-9.80561 1.31277,0 -0.19647,1.81288 0.0893,0 q 0.65192,-0.85732 1.07165,-1.22347 0.41973,-0.36615 0.88412,-0.56262 0.46438,-0.2054 1.027,-0.2054 z"
       style=""
       id="path4331" /><path
       d="m 181.47804,126.68158 q -1.22347,0 -1.9379,-0.87519 -0.71444,-0.87518 -0.71444,-2.46479 0,-1.83074 0.62513,-3.41143 0.63406,-1.58961 1.74143,-2.50052 1.10738,-0.9109 2.44694,-0.9109 0.83053,0 1.45566,0.43759 0.63406,0.43759 1.00914,1.25919 l 0.0982,0 0.58048,-1.51817 1.22347,0 -2.08079,9.80561 -1.27705,0 0.23219,-1.81288 -0.0714,0 q -1.54497,1.99149 -3.33105,1.99149 z m 0.53582,-1.33064 q 0.83946,0 1.67892,-0.80374 0.84839,-0.80373 1.35743,-2.08972 0.50903,-1.29491 0.50903,-2.63447 0,-0.87518 -0.48224,-1.41101 -0.48224,-0.54475 -1.27705,-0.54475 -0.90197,0 -1.67892,0.75908 -0.76802,0.75016 -1.20561,2.02721 -0.43759,1.27705 -0.43759,2.72378 0,0.99128 0.40187,1.48245 0.40187,0.49117 1.13416,0.49117 z"
       style=""
       id="path4333" /><path
       d="m 191.97129,125.3688 q 0.55368,0 1.29491,-0.24112 l 0,1.2324 q -0.25005,0.12503 -0.72336,0.22326 -0.46439,0.0982 -0.81267,0.0982 -1.1431,0 -1.74144,-0.53583 -0.59833,-0.53582 -0.59833,-1.59855 0,-0.57154 0.16074,-1.30384 l 1.11631,-5.32253 -1.51818,0 0.14289,-0.72337 1.65213,-0.69657 1.13416,-2.03614 0.94663,0 -0.49117,2.23261 2.46479,0 -0.25005,1.22347 -2.45587,0 -1.13416,5.34932 q -0.16075,0.72337 -0.16075,1.08952 0,0.42866 0.22326,0.72336 0.22326,0.28577 0.75016,0.28577 z"
       style=""
       id="path4335" /><path
       d="m 196.54367,126.50297 -1.61641,0 2.08972,-9.80561 1.60748,0 -2.08079,9.80561 z m 0.89304,-12.28827 q 0,-0.50903 0.29471,-0.83946 0.30363,-0.33042 0.78587,-0.33042 0.83946,0 0.83946,0.82159 0,0.53583 -0.31256,0.87519 -0.31257,0.33042 -0.7323,0.33042 -0.384,0 -0.63406,-0.22326 -0.24112,-0.22326 -0.24112,-0.63406 z"
       style=""
       id="path4337" /><path
       d="m 207.21553,126.50297 -1.60748,0 1.29491,-6.14414 q 0.18754,-0.88411 0.18754,-1.25919 0,-0.56261 -0.31256,-0.89304 -0.31257,-0.33935 -0.99128,-0.33935 -0.76802,0 -1.50031,0.52689 -0.72337,0.5269 -1.28598,1.5271 -0.56262,0.99128 -0.84839,2.35764 l -0.89305,4.22409 -1.6164,0 2.08972,-9.80561 1.31277,0 -0.19647,1.81288 0.0893,0 q 0.59834,-0.76802 1.07165,-1.15203 0.48225,-0.38401 1.03593,-0.60727 0.56262,-0.23219 1.18775,-0.23219 1.15203,0 1.80395,0.63406 0.66085,0.62513 0.66085,1.77716 0,0.69657 -0.19647,1.60747 l -1.28598,5.96553 z"
       style=""
       id="path4339" /><path
       d="m 213.82404,125.35094 q 0.80374,0 1.65213,-0.81267 0.84839,-0.81266 1.35742,-2.09865 0.51797,-1.29491 0.51797,-2.58982 0,-1.98255 -1.79502,-1.98255 -0.90197,0 -1.66106,0.75908 -0.75908,0.75016 -1.19667,2.04507 -0.42866,1.29491 -0.42866,2.70592 0,1.97362 1.55389,1.97362 z m -0.67871,5.5458 q -1.7593,0 -2.94704,-0.62513 l 0,-1.48245 q 0.56261,0.33935 1.39314,0.55368 0.83053,0.21433 1.50032,0.21433 1.18774,0 1.89325,-0.58047 0.7055,-0.57155 0.99127,-1.79502 l 0.45546,-1.87539 0.16967,-0.6162 -0.0714,0 q -0.81267,1.04486 -1.61641,1.51817 -0.79481,0.47332 -1.62533,0.47332 -1.24133,0 -1.95577,-0.87519 -0.71443,-0.87518 -0.71443,-2.46479 0,-1.92004 0.65192,-3.50966 0.65192,-1.59855 1.7325,-2.45587 1.08951,-0.85732 2.42908,-0.85732 1.70571,0 2.48266,1.69678 l 0.0804,0 0.59834,-1.51817 1.22347,0 -2.22368,10.36822 q -0.41973,1.9647 -1.50031,2.89346 -1.08058,0.9377 -2.94704,0.9377 z"
       style=""
       id="path4341" /><path
       d="m 233.27451,122.71647 q 0,1.86646 -1.25026,2.92025 -1.25026,1.04486 -3.53645,1.04486 -1.8218,0 -3.03634,-0.58048 l 0,-1.60748 q 1.49138,0.76802 3.0542,0.76802 1.39315,0 2.22368,-0.64299 0.83053,-0.64299 0.83053,-1.77716 0,-0.67871 -0.44652,-1.19667 -0.43759,-0.51797 -1.71464,-1.25026 -1.35743,-0.79481 -1.86646,-1.56283 -0.50904,-0.76801 -0.50904,-1.78608 0,-1.11631 0.54476,-1.97363 0.54476,-0.86625 1.53603,-1.33956 1.00021,-0.47331 2.21475,-0.47331 1.77715,0 3.27747,0.76801 l -0.62513,1.39315 q -0.57155,-0.3215 -1.28599,-0.51797 -0.71443,-0.19647 -1.36635,-0.19647 -1.15203,0 -1.85753,0.60727 -0.69657,0.59834 -0.69657,1.62534 0,0.69657 0.34828,1.15203 0.34829,0.45545 1.50925,1.13416 1.27705,0.77695 1.7325,1.2324 0.45545,0.44652 0.68764,0.99128 0.23219,0.54475 0.23219,1.26812 z"
       style=""
       id="path4343" /><path
       d="m 242.14243,120.1713 q 0,-1.027 -0.53583,-1.6432 -0.53582,-0.62513 -1.45566,-0.62513 -0.94662,0 -1.70571,0.66085 -0.75909,0.66085 -1.16989,1.83074 -0.4108,1.16095 -0.4108,2.54517 0,1.14309 0.54476,1.75929 0.55369,0.6162 1.57176,0.6162 0.89304,0 1.6164,-0.63406 0.7323,-0.64299 1.13417,-1.81288 0.4108,-1.16988 0.4108,-2.69698 z m 1.65213,0.18753 q 0,1.69679 -0.643,3.18817 -0.64299,1.48245 -1.75036,2.29512 -1.10737,0.80373 -2.50945,0.80373 -1.71464,0 -2.68806,-1.01806 -0.97341,-1.01807 -0.97341,-2.75058 0,-1.71464 0.66085,-3.21495 0.66085,-1.50031 1.75929,-2.29512 1.10737,-0.79481 2.48266,-0.79481 1.70571,0 2.67913,1.01807 0.98235,1.00914 0.98235,2.76843 z"
       style=""
       id="path4345" /><path
       d="m 243.76776,130.89674 q -0.62513,0 -1.16988,-0.18754 l 0,-1.35743 q 0.55368,0.2054 1.01807,0.2054 0.62513,0 1.00913,-0.5001 0.38401,-0.5001 0.60727,-1.58069 l 2.00935,-9.55555 -1.70571,0 0.13395,-0.66978 1.82181,-0.60727 0.2054,-0.87518 q 0.4108,-1.80395 1.15203,-2.52731 0.75015,-0.7323 2.17902,-0.7323 0.86625,0 1.71464,0.34829 l -0.41973,1.22347 q -0.66085,-0.25006 -1.22347,-0.25006 -0.78588,0 -1.17881,0.44652 -0.39294,0.44653 -0.6162,1.49139 l -0.21433,0.92876 2.09865,0 -0.23219,1.22347 -2.10758,0 -2.04507,9.73416 q -0.35722,1.68785 -1.10738,2.4648 -0.74122,0.77695 -1.92897,0.77695 z"
       style=""
       id="path4347" /><path
       d="m 254.09134,125.3688 q 0.55368,0 1.29491,-0.24112 l 0,1.2324 q -0.25005,0.12503 -0.72337,0.22326 -0.46438,0.0982 -0.81266,0.0982 -1.1431,0 -1.74144,-0.53583 -0.59834,-0.53582 -0.59834,-1.59855 0,-0.57154 0.16075,-1.30384 l 1.1163,-5.32253 -1.51817,0 0.14289,-0.72337 1.65213,-0.69657 1.13416,-2.03614 0.94663,0 -0.49118,2.23261 2.4648,0 -0.25005,1.22347 -2.45587,0 -1.13416,5.34932 q -0.16075,0.72337 -0.16075,1.08952 0,0.42866 0.22326,0.72336 0.22326,0.28577 0.75016,0.28577 z"
       style=""
       id="path4349" /><path
       d="m 263.6201,118.25125 -0.45545,1.09845 -0.71444,1.66999 -2.56303,5.48328 -1.90218,0 -0.40187,-9.80561 1.57175,0 0.16075,6.14413 q 0,0.6162 -0.0893,2.25047 l 0.0714,0 q 0.0982,-0.26791 0.44652,-1.13416 0.35722,-0.87519 0.66085,-1.53604 0.30364,-0.66978 2.66127,-5.7244 l 1.74143,0 0.31257,5.25109 0.0357,2.21475 0,0.52689 -0.0179,0.40187 0.0714,0 q 0.46438,-1.39315 1.40208,-3.5811 l 2.1433,-4.8135 1.70571,0 -4.53665,9.80561 -1.93791,0 -0.27684,-5.30468 -0.0179,-1.27705 0,-1.66999 -0.0714,0 z"
       style=""
       id="path4351" /><path
       d="m 273.28281,126.68158 q -1.22347,0 -1.9379,-0.87519 -0.71443,-0.87518 -0.71443,-2.46479 0,-1.83074 0.62513,-3.41143 0.63406,-1.58961 1.74143,-2.50052 1.10737,-0.9109 2.44694,-0.9109 0.83053,0 1.45566,0.43759 0.63406,0.43759 1.00913,1.25919 l 0.0982,0 0.58048,-1.51817 1.22346,0 -2.08078,9.80561 -1.27706,0 0.2322,-1.81288 -0.0715,0 q -1.54496,1.99149 -3.33105,1.99149 z m 0.53583,-1.33064 q 0.83946,0 1.67892,-0.80374 0.84839,-0.80373 1.35742,-2.08972 0.50904,-1.29491 0.50904,-2.63447 0,-0.87518 -0.48225,-1.41101 -0.48224,-0.54475 -1.27705,-0.54475 -0.90197,0 -1.67892,0.75908 -0.76801,0.75016 -1.2056,2.02721 -0.43759,1.27705 -0.43759,2.72378 0,0.99128 0.40186,1.48245 0.40187,0.49117 1.13417,0.49117 z"
       style=""
       id="path4353" /><path
       d="m 286.93744,116.51875 q 0.62513,0 1.06272,0.12503 l -0.34829,1.44673 q -0.5001,-0.10717 -0.93769,-0.10717 -0.80374,0 -1.50924,0.5269 -0.70551,0.51796 -1.2324,1.45566 -0.51797,0.93769 -0.75016,2.05399 l -0.94662,4.48308 -1.61641,0 2.08972,-9.80561 1.31277,0 -0.19647,1.81288 0.0893,0 q 0.65192,-0.85732 1.07165,-1.22347 0.41973,-0.36615 0.88411,-0.56262 0.46438,-0.2054 1.027,-0.2054 z"
       style=""
       id="path4355" /><path
       d="m 293.59061,117.84938 q -0.91983,0 -1.7325,0.86626 -0.81267,0.85732 -1.17882,2.24153 l 0.13396,0 q 1.94683,0 3.01848,-0.51796 1.07166,-0.51797 1.07166,-1.50924 0,-0.47332 -0.3215,-0.77695 -0.32149,-0.30364 -0.99128,-0.30364 z m -1.25919,8.8322 q -1.66106,0 -2.60768,-0.97342 -0.94663,-0.98235 -0.94663,-2.71485 0,-1.67892 0.65192,-3.20602 0.66086,-1.52711 1.77716,-2.39336 1.1163,-0.87518 2.47373,-0.87518 1.39314,0 2.09865,0.60727 0.7055,0.59834 0.7055,1.67892 0,1.62534 -1.50031,2.54517 -1.50031,0.91091 -4.23302,0.91091 l -0.30364,0 -0.0357,0.67871 q 0,1.12523 0.53583,1.76822 0.54475,0.64299 1.66999,0.64299 0.68764,0 1.31277,-0.19647 0.63406,-0.19647 1.35742,-0.55368 l 0,1.37528 q -0.88411,0.4108 -1.54496,0.55369 -0.66085,0.15182 -1.41101,0.15182 z"
       style=""
       id="path4357" /></g></svg>