<?xml version="1.0" encoding="UTF-8" standalone="no"?>
<!-- Generator: Adobe Illustrator 14.0.0, SVG Export Plug-In . SVG Version: 6.00 Build 43363)  -->
<svg xmlns:rdf="http://www.w3.org/1999/02/22-rdf-syntax-ns#" xmlns="http://www.w3.org/2000/svg" enable-background="new 0 0 566.93 283.46" xml:space="preserve" height="150" width="300" version="1.1" y="0px" x="0px" xmlns:cc="http://creativecommons.org/ns#" xmlns:dc="http://purl.org/dc/elements/1.1/" viewBox="0 0 300 150.00001"><metadata><rdf:RDF><cc:Work rdf:about=""><dc:format>image/svg+xml</dc:format><dc:type rdf:resource="http://purl.org/dc/dcmitype/StillImage"/><dc:title/></cc:Work></rdf:RDF></metadata><g transform="translate(0 -133)" display="none"><g display="inline"><path d="m376 133c-1.05 2.5 0.119 5.38 2.62 6.43-2.5-1.05-5.38 0.119-6.43 2.62 1.05-2.5-0.119-5.38-2.62-6.43 2.5 1.05 5.38-0.117 6.43-2.62z"/><path d="m325 115c-1.05 2.5 0.119 5.38 2.62 6.43-2.5-1.05-5.38 0.118-6.43 2.61 1.05-2.5-0.117-5.38-2.62-6.43 2.5 1.05 5.38-0.118 6.43-2.62z"/><path d="m286 118c-1.05 2.5 0.118 5.38 2.62 6.43-2.5-1.05-5.38 0.119-6.43 2.62 1.05-2.5-0.121-5.38-2.62-6.43 2.5 1.05 5.38-0.117 6.43-2.62z"/><path d="m239 125c-1.06 2.5 0.116 5.38 2.62 6.43-2.5-1.05-5.38 0.118-6.43 2.62 1.05-2.5-0.119-5.38-2.62-6.43 2.5 1.05 5.38-0.118 6.43-2.62z"/><path d="m221 156c-1.05 2.5 0.119 5.38 2.62 6.43-2.5-1.06-5.38 0.117-6.43 2.61 1.05-2.5-0.118-5.38-2.62-6.43 2.5 1.05 5.38-0.116 6.43-2.62z"/><path d="m174 147c-1.05 2.5 0.119 5.38 2.62 6.43-2.5-1.05-5.38 0.118-6.43 2.62 1.05-2.5-0.121-5.38-2.62-6.43 2.5 1.05 5.38-0.117 6.43-2.62z"/><path d="m172 107c-1.05 2.5 0.119 5.38 2.62 6.43-2.5-1.05-5.38 0.12-6.43 2.62 1.05-2.5-0.118-5.38-2.62-6.43 2.5 1.05 5.38-0.117 6.43-2.62z"/><path d="m245 147-1.25 7c0.92-0.658 2.37-0.921 3.12-0.921 4.37 0 6.67 3.25 6.67 7.16 0 9.99-9.66 12-17 8.97l3.91-22.2h4.5zm-3.45 19.3c0.789 0.296 1.58 0.362 2.3 0.362 3.16-0.033 5.19-2.73 5.19-5.95 0-2.5-1.44-3.68-3.58-3.68-0.625 0-1.54 0.164-2.33 0.658l-1.58 8.61z"/><path d="m261 171c-3.88 0.624-6.67-0.756-5.85-5.36l3.12-17.7h4.5l-3.12 17.7c-0.164 0.854 0.098 1.84 2 1.68l-0.656 3.68z"/><path d="m263 163 1.71-9.63h4.5l-1.68 9.43c-0.592 3.32 2.53 4.47 5.85 3.45l2.27-12.9h4.5l-2.79 15.9c-6.31 2.33-15.8 1.97-14.4-6.31z"/><path d="m295 168c-2.4 2.2-4.77 3.12-7.2 3.12-4.9 0-7.13-3.55-7.13-7.26 0-4.9 3.94-10.1 10.2-10.1 4.24-0.033 6.97 2.66 6.97 6.74 0 1.58-0.395 2.63-1.05 3.71h-11.7c-0.065 3.75 4.7 3.98 7.86 1.54l2.14 2.24zm-1.54-7.23c0.197-2.4-1.58-3.12-3.29-3.12-1.74 0-3.78 0.887-4.54 3.12h7.82z"/><g fill="#58595b"><path d="m310 165c0 3.65-3.88 5.39-6.54 5.39-1.97 0-3.71-0.821-4.67-2.4 0.395-0.328 0.888-0.756 1.22-1.05 1.51 2.76 7.23 2.66 8.25-1.38 0.296-1.87-1.81-2.83-3.25-3.12-2.46-0.428-4.57-1.78-4.11-4.5 0.854-4.9 7.76-6.11 10.4-3.16l-1.22 1.12c-1.84-2.17-7.53-1.31-7.53 2.37 0 1.68 1.77 2.4 3.06 2.66 2.27 0.492 4.4 1.68 4.4 4.08z"/><path d="m311 175c1.87 0.066 2.76-0.592 3.52-1.94l1.41-2.53-3.88-16.7h1.84l3.25 15 8.25-15h1.84l-11.2 19.8c-1.22 2.24-2.89 2.79-4.77 2.79h-0.525l0.262-1.42z"/><path d="m336 165c0 3.65-3.88 5.39-6.54 5.39-1.97 0-3.72-0.821-4.67-2.4 0.395-0.328 0.888-0.756 1.22-1.05 1.51 2.76 7.23 2.66 8.25-1.38 0.296-1.87-1.81-2.83-3.25-3.12-2.46-0.428-4.57-1.78-4.11-4.5 0.854-4.9 7.76-6.11 10.4-3.16l-1.22 1.12c-1.84-2.17-7.53-1.31-7.53 2.37 0 1.68 1.78 2.4 3.06 2.66 2.27 0.492 4.4 1.68 4.4 4.08z"/><path d="m343 171c-2.93 0.133-4.83-1.41-4.24-4.67l1.87-10.7h-2.47l0.264-1.41h2.46l0.689-4.08 1.74-0.362-0.756 4.44h3.39l-0.264 1.41h-3.38l-1.87 10.7c-0.362 1.97 0.723 3.15 2.86 3.12l-0.295 1.54z"/><path d="m358 167 1.12 0.888c-1.91 1.94-4.34 2.89-6.84 2.89-5.36 0-7.26-4.57-6.51-8.71 0.756-4.17 4.27-8.38 9.5-8.41 4.01-0.032 6.48 2.89 6.48 6.7 0 1.68-0.296 1.94-0.395 2.37h-14.1c-0.395 3.65 1.38 6.44 5.32 6.44 1.88 0 3.98-0.689 5.42-2.17zm2.14-5.72c0.461-3.58-1.68-5.98-5.13-6.05-3.88 0.033-6.48 2.7-7.53 6.05h12.7z"/><path d="m376 157c1.94-2.93 4.21-3.39 6.41-3.39 3.58 0 6.15 1.94 5.26 7l-1.74 9.93h-1.71l1.74-9.93c0.689-3.88-1.28-5.46-3.81-5.46-2.6 0-5.19 1.18-5.92 5.13l-1.81 10.3h-1.64l1.81-10.3c1.18-5-4.64-6.15-8.71-4.64l-2.63 14.9h-1.71l2.83-16.1c3.68-1.41 10.6-1.71 11.6 2.53z"/><path d="m400 165c0 3.65-3.88 5.39-6.54 5.39-1.97 0-3.71-0.822-4.67-2.4 0.393-0.328 0.887-0.756 1.22-1.05 1.51 2.76 7.23 2.66 8.25-1.38 0.297-1.87-1.81-2.83-3.25-3.12-2.46-0.427-4.57-1.77-4.11-4.5 0.854-4.9 7.76-6.11 10.4-3.16l-1.22 1.12c-1.84-2.17-7.53-1.31-7.53 2.37 0 1.68 1.78 2.4 3.06 2.66 2.27 0.493 4.4 1.68 4.4 4.08z"/></g></g><rect display="inline" height="28.3" width="28.3" y="10" x="539"/><rect display="inline" height="28.3" width="28.3" y="40.3" x="539" fill="#58595b"/></g><g transform="translate(114 -456)"><g transform="matrix(.711 0 0 .711 -94.1 471)"><path d="m277 146c0 11.4-9.3 21.6-22.8 21.6h-42.4v-15.8h42.5c2.6 0 5.8-2.1 5.8-5.7 0-3.7-2.3-5.9-6.8-6.6-0.2 0-26-3.8-26.2-3.8-13.7-2.1-19.7-12.4-19.7-22.4 0-11.4 9.3-21.6 22.8-21.6h42.4v15.9h-42.5c-2.6 0-5.8 2.1-5.8 5.7 0 3.7 2.3 5.9 6.8 6.6 0.2 0 26 3.8 26.2 3.8 13.7 2 19.7 12.4 19.7 22.3zm-90.9-54.4v45.2c0 9.5-7.7 17.1-17.1 17.1-9.5 0-17.1-7.7-17.1-17.1v-45.2h-16.5v44.3c0 18.6 15 33.6 33.6 33.6s33.6-15 33.6-33.6v-44.3h-16.5zm178 70.9c0-2.8-2.3-5.2-5.2-5.2-3 0-5.3 2.4-5.3 5.2s2.3 5.2 5.2 5.2c3 0 5.3-2.4 5.3-5.2zm-1.1 0c0 2.3-1.8 4.1-4.2 4.1s-4.2-1.8-4.2-4.1 1.8-4.1 4.2-4.1 4.2 1.8 4.2 4.1zm-1.9-1c0-1-0.8-1.6-2-1.6h-2.2v4.9h1.1v-1.6h0.9l1.1 1.6h1.3l-1.2-1.8c0.5-0.2 1-0.7 1-1.5zm-1.1 0.1c0 0.4-0.3 0.7-0.9 0.7h-1.1v-1.5h1.1c0.5 0 0.9 0.3 0.9 0.8zm-23.1-54.1c6.3-0.2 12.9-5 12.9-14.5v-1.4h-46c-13.5 0-22.8 10.2-22.8 21.6v32.8c0 11.4 9.3 21.6 22.8 21.6h46v-1.4c0-9.4-6.6-14.3-12.9-14.5h-33.2c-2.6 0-5.8-2.1-5.8-5.7 0-3.7 2.4-6.6 6.8-6.6h14.4c12.6-0.1 19.9-7.8 22.2-16.7h-34.6c-6.2 0-8.8 4.9-8.8 4.9v-14.5c0-3.7 3.2-5.7 5.8-5.7h33.2zm-226 16.1c-0.2 0-26-3.8-26.2-3.8-4.5-0.7-6.8-2.9-6.8-6.6s3.2-5.7 5.8-5.7h42.5v-15.9h-42.4c-13.5 0-22.8 10.2-22.8 21.6 0 10 6 20.3 19.7 22.4 0.2 0 26 3.8 26.2 3.8 4.5 0.7 6.8 2.9 6.8 6.6s-3.2 5.7-5.8 5.7h-31c-6.3 0.2-12.9 5-12.9 14.5v1.4h43.9c13.5 0 22.7-10.2 22.7-21.6 0-9.9-6-20.3-19.7-22.4z"/><g fill="#80ba27"><path class="st0" d="m154 2.2s-0.1 6-0.1 6.7c-3-1-24.6-8-44.9-8.7-17.2-0.6-40.6-1.4-73.8 19l-1 0.6c-14.9 9.7-25.7 21.7-31.3 35.7-1.7 4.3-4.1 14.2-1.7 23.6 1 4.1 2.9 8.2 5.5 11.8 5.8 8.3 15.4 13.8 25.8 14.7 14.7 1.3 25.8-5.3 29.8-17.6 2.7-8.5 0-21-10.4-27.4-8.5-5.2-17.6-4-22.9-0.5-4.6 3-7.2 7.8-7.2 13 0.1 9.2 8 14.1 13.7 14.1 1.7 0 3.3-0.3 5.2-0.9 0.7-0.2 1.3-0.5 2-0.9l0.2-0.1 0.1-0.1h-0.1c1.3-0.9 2.1-2.3 2.1-3.9 0-0.4-0.1-0.9-0.2-1.3-0.7-2.3-3-3.7-5.4-3.3h-0.2l-0.4 0.1-0.6 0.3c-1.3 0.3-2.3 0.4-2.5 0.4-0.7 0-4-1-4-4.6 0-1.3 0.5-2.2 0.8-2.8 1-1.6 3.8-3.2 7.6-2.8 5 0.4 8.5 3 10.9 7.8 2.2 4.5 1.6 10-1.5 14s-8.6 5.7-15.9 4.9c-7.4-0.8-13.6-5-17.1-11.7-3.4-6.4-3.6-14.1-0.5-20 7.5-14.1 21.5-13.9 29.3-12.6 11 1.9 27.6 11.7 33.9 34.5h15.2c-1.9-5.8-3-22.6 14.1-22.6 18.7 0 21.1 13.2 26.4 22.6h16.1c-4.2-6.1-7.2-12.8-6.3-18.5 1.4-8.4 8.1-7.6 17.3-6.6 3 0.3 6.4 0.7 10 0.8 9.9 0.1 18.9-1.8 25.4-4.6 4.3-1.9 7-3.1 8.7-4.6 0.6-0.5 0.9-1.3 1.3-2.2l0.2-0.6c0.3-0.7 0.6-2.2 0.9-3 0.4-1.7-1-0.8-1-0.8-2.9 1.7-10.1 5-16.8 5.2-8.4 0.2-25.2-8.4-27-9.3l-0.2-0.2c-0.4-1-3-7-3.5-8.3 12.1 8 22.2 12.4 29.9 13.1 8.6 0.8 15.3-3.9 18.1-5.9 0.3-0.2 1.4-1 1.2-1.9-1.1-3.9-5-16.9-8.2-20.3-0.9-1-1.7-1.9-3.2-2.8-12-7.2-41-11.5-42-11.7 0-0.1-1-0.2-1 0.2zm20 24.1c0.1-3.3 1.5-6.4 3.9-8.7s5.6-3.4 8.9-3.3c6.9 0.2 12.3 6 12 12.9-0.1 3.3-1.5 6.4-4 8.7-2.4 2.3-5.6 3.4-8.9 3.3-6.7-0.3-12.1-6.1-11.9-12.9z"/><path class="st0" d="m187 17.9c-2.3-0.1-4.5 0.7-6.2 2.3s-2.7 3.7-2.8 6c-0.2 4.8 3.6 8.8 8.4 9 2.3 0.1 4.5-0.8 6.2-2.3 1.7-1.6 2.7-3.7 2.7-6 0.2-4.8-3.5-8.8-8.3-9zm1.4 9.5c-2.1 0-3.9-1.2-3.9-2.6s1.7-2.6 3.9-2.6c2.1 0 3.9 1.2 3.9 2.6 0 1.5-1.8 2.6-3.9 2.6z"/></g></g></g></svg>
