------------------------------------------------------------------------
r1223890 | ossi | 2011-03-06 05:33:39 +1300 (Sun, 06 Mar 2011) | 5 lines

add missing glu.h include

BUG: 261378
FIXED-IN: 4.6.2

------------------------------------------------------------------------
r1226183 | scripty | 2011-03-28 03:02:46 +1300 (Mon, 28 Mar 2011) | 1 line

SVN_SILENT made messages (.desktop file)
------------------------------------------------------------------------
r1226413 | scripty | 2011-03-30 07:13:24 +1300 (Wed, 30 Mar 2011) | 1 line

SVN_SILENT made messages (.desktop file)
------------------------------------------------------------------------
