------------------------------------------------------------------------
r934017 | scripty | 2009-03-02 07:22:40 +0000 (Mon, 02 Mar 2009) | 1 line

SVN_SILENT made messages (.desktop file)
------------------------------------------------------------------------
r935446 | scripty | 2009-03-05 07:51:24 +0000 (Thu, 05 Mar 2009) | 1 line

SVN_SILENT made messages (.desktop file)
------------------------------------------------------------------------
r938544 | scripty | 2009-03-12 07:46:35 +0000 (Thu, 12 Mar 2009) | 1 line

SVN_SILENT made messages (.desktop file)
------------------------------------------------------------------------
r940291 | scripty | 2009-03-17 08:08:21 +0000 (Tue, 17 Mar 2009) | 1 line

SVN_SILENT made messages (.desktop file)
------------------------------------------------------------------------
r941238 | scripty | 2009-03-19 07:48:48 +0000 (Thu, 19 Mar 2009) | 1 line

SVN_SILENT made messages (.desktop file)
------------------------------------------------------------------------
r942596 | scripty | 2009-03-22 07:43:23 +0000 (Sun, 22 Mar 2009) | 1 line

SVN_SILENT made messages (.desktop file)
------------------------------------------------------------------------
