------------------------------------------------------------------------
r840287 | mueller | 2008-07-31 22:13:20 +0200 (Thu, 31 Jul 2008) | 1 line

fix link lines
------------------------------------------------------------------------
r847250 | scripty | 2008-08-15 06:54:44 +0200 (Fri, 15 Aug 2008) | 1 line

SVN_SILENT made messages (.desktop file)
------------------------------------------------------------------------
r849137 | scripty | 2008-08-19 07:12:57 +0200 (Tue, 19 Aug 2008) | 1 line

SVN_SILENT made messages (.desktop file)
------------------------------------------------------------------------
r852005 | scripty | 2008-08-25 07:27:03 +0200 (Mon, 25 Aug 2008) | 1 line

SVN_SILENT made messages (.desktop file)
------------------------------------------------------------------------
