------------------------------------------------------------------------
r1032165 | fzenith | 2009-10-07 06:12:11 +0000 (Wed, 07 Oct 2009) | 3 lines

Documentation update
CCMAIL: Josef.Weidendorfer@gmx.de

------------------------------------------------------------------------
r1032291 | lueck | 2009-10-07 13:50:30 +0000 (Wed, 07 Oct 2009) | 1 line

reverting commit 1032165, branch is frozen
------------------------------------------------------------------------
r1032980 | scripty | 2009-10-09 03:12:43 +0000 (Fri, 09 Oct 2009) | 1 line

SVN_SILENT made messages (.desktop file)
------------------------------------------------------------------------
r1033955 | kkofler | 2009-10-11 16:51:13 +0000 (Sun, 11 Oct 2009) | 3 lines

Fix typo spotted by Will Angenent (4.3.2 regression).
CCBUG: 139209
backport revision 1033954 from trunk
------------------------------------------------------------------------
r1040339 | shaforo | 2009-10-26 08:02:26 +0000 (Mon, 26 Oct 2009) | 3 lines

BUG: 211415
fix encodings

------------------------------------------------------------------------
r1041531 | scripty | 2009-10-28 04:28:43 +0000 (Wed, 28 Oct 2009) | 1 line

SVN_SILENT made messages (.desktop file)
------------------------------------------------------------------------
r1042073 | scripty | 2009-10-29 04:20:23 +0000 (Thu, 29 Oct 2009) | 1 line

SVN_SILENT made messages (.desktop file)
------------------------------------------------------------------------
